%YAML 1.1
%TAG !u! tag:unity3d.com,2011:
--- !u!114 &11400000
MonoBehaviour:
  m_ObjectHideFlags: 0
  m_CorrespondingSourceObject: {fileID: 0}
  m_PrefabInstance: {fileID: 0}
  m_PrefabAsset: {fileID: 0}
  m_GameObject: {fileID: 0}
  m_Enabled: 1
  m_EditorHideFlags: 0
  m_Script: {fileID: 11500000, guid: 735202b9b22d7fd4ebada9825233dc81, type: 3}
  m_Name: Fish
  m_EditorClassIdentifier: 
  ItemName: fish
  Icon: {fileID: 21300000, guid: a61c23cd4577a3846ae021a9050628a3, type: 3}
