%YAML 1.1
%TAG !u! tag:unity3d.com,2011:
--- !u!1045 &1
EditorBuildSettings:
  m_ObjectHideFlags: 0
  serializedVersion: 2
  m_Scenes:
  - enabled: 1
    path: Assets/Scenes/GameMenu.unity
    guid: aaef31ec97c6afe44bf8e5b0b3288e9a
  - enabled: 1
    path: Assets/Scenes/Menu.unity
    guid: 98ed8c7e7073d384499b4d86247e4727
  - enabled: 0
    path: 
    guid: 00000000000000000000000000000000
  - enabled: 0
    path: 
    guid: 00000000000000000000000000000000
  - enabled: 1
    path: Assets/Scenes/ArenaMap.unity
    guid: 65acfc9bc287fec4dbde6f368f96f334
  m_configObjects: {}
